rekursif

metode ada dimatematik 
fungsi uang memanggil dirinya sendiri

bu :

def namafungsi(paramerter):
  statement didalam fungsi
  ...
  pemanggilan fungsi #rekursif
nama fungsi

def x()
 print 'askdla',x()
print 'aksjdlkas',x()

contoh penggunaan rekursiff
1.perpangkatan
3^3-27 --> 3x3x3
	   3.3^(3-1)
	   x.x^(y-1)
3^0-1 --> 3^1 . 3^-1
	  3.1/3-1
mis : x-bil
      y=pangkat
maka:

2.faktorial
5!=5.4.3.2.1
  =5.(5-1)!
mis : n=bil
n.(n-1)!
0!=1
4!=5!/5

3.deret fibonansi
0 1 1 2 3 5 8
suku pertama =0
suku kedua=1


tentukan 2 buah bil :p dan q
mis : p=26
      	=13

pbb(p,,q)=1 akan dikatakan relatif prima
pbb(26,13)=13 -- bukan relatif prima
pbb(50,23)

26=2.13+0

50=2.23+4
23=5.4+3
4=1.3+1
3=3.1+0
